(kicad_sch (version 20230121) (generator eeschema)

  (uuid 2e53f67b-7a73-4d1c-9809-6dd34f05a78e)

  (paper "A4")

  (lib_symbols
    (symbol "Diode:1N5819WS" (pin_numbers hide) (pin_names (offset 1.016) hide) (in_bom yes) (on_board yes)
      (property "Reference" "D" (at 0 2.54 0)
        (effects (font (size 1.27 1.27)))
      )
      (property "Value" "1N5819WS" (at 0 -2.54 0)
        (effects (font (size 1.27 1.27)))
      )
      (property "Footprint" "Diode_SMD:D_SOD-323" (at 0 -4.445 0)
        (effects (font (size 1.27 1.27)) hide)
      )
      (property "Datasheet" "https://datasheet.lcsc.com/lcsc/2204281430_Guangdong-Hottech-1N5819WS_C191023.pdf" (at 0 0 0)
        (effects (font (size 1.27 1.27)) hide)
      )
      (property "ki_keywords" "diode Schottky" (at 0 0 0)
        (effects (font (size 1.27 1.27)) hide)
      )
      (property "ki_description" "40V 600mV@1A 1A SOD-323 Schottky Barrier Diodes, SOD-323" (at 0 0 0)
        (effects (font (size 1.27 1.27)) hide)
      )
      (property "ki_fp_filters" "D*SOD?323*" (at 0 0 0)
        (effects (font (size 1.27 1.27)) hide)
      )
      (symbol "1N5819WS_0_1"
        (polyline
          (pts
            (xy 1.27 0)
            (xy -1.27 0)
          )
          (stroke (width 0) (type default))
          (fill (type none))
        )
        (polyline
          (pts
            (xy 1.27 1.27)
            (xy 1.27 -1.27)
            (xy -1.27 0)
            (xy 1.27 1.27)
          )
          (stroke (width 0.254) (type default))
          (fill (type none))
        )
        (polyline
          (pts
            (xy -1.905 0.635)
            (xy -1.905 1.27)
            (xy -1.27 1.27)
            (xy -1.27 -1.27)
            (xy -0.635 -1.27)
            (xy -0.635 -0.635)
          )
          (stroke (width 0.254) (type default))
          (fill (type none))
        )
      )
      (symbol "1N5819WS_1_1"
        (pin passive line (at -3.81 0 0) (length 2.54)
          (name "K" (effects (font (size 1.27 1.27))))
          (number "1" (effects (font (size 1.27 1.27))))
        )
        (pin passive line (at 3.81 0 180) (length 2.54)
          (name "A" (effects (font (size 1.27 1.27))))
          (number "2" (effects (font (size 1.27 1.27))))
        )
      )
    )
    (symbol "ScamCart2600:blackpill-stm32f103rct6-v1.2+" (in_bom yes) (on_board yes)
      (property "Reference" "U" (at -1.27 6.35 0)
        (effects (font (size 1.27 1.27)))
      )
      (property "Value" "blackpill-stm32f103rct6-v1.2+" (at -1.27 0 0)
        (effects (font (size 1.27 1.27)))
      )
      (property "Footprint" "SpareCart2600:Bluepill" (at 0 -6.35 0)
        (effects (font (size 1.27 1.27)) hide)
      )
      (property "Datasheet" "" (at -6.35 17.78 0)
        (effects (font (size 1.27 1.27)) hide)
      )
      (symbol "blackpill-stm32f103rct6-v1.2+_0_0"
        (pin bidirectional line (at 36.83 -6.35 180) (length 2.54)
          (name "PA5/sck" (effects (font (size 1.27 1.27))))
          (number "10" (effects (font (size 1.27 1.27))))
        )
        (pin bidirectional line (at 36.83 -1.27 180) (length 2.54)
          (name "A4/f_cs" (effects (font (size 1.27 1.27))))
          (number "11" (effects (font (size 1.27 1.27))))
        )
        (pin bidirectional line (at 36.83 3.81 180) (length 2.54)
          (name "A3" (effects (font (size 1.27 1.27))))
          (number "12" (effects (font (size 1.27 1.27))))
        )
        (pin bidirectional line (at 36.83 8.89 180) (length 2.54)
          (name "A2" (effects (font (size 1.27 1.27))))
          (number "13" (effects (font (size 1.27 1.27))))
        )
        (pin bidirectional line (at 36.83 13.97 180) (length 2.54)
          (name "A1" (effects (font (size 1.27 1.27))))
          (number "14" (effects (font (size 1.27 1.27))))
        )
        (pin bidirectional line (at 36.83 19.05 180) (length 2.54)
          (name "A0/KEY" (effects (font (size 1.27 1.27))))
          (number "15" (effects (font (size 1.27 1.27))))
        )
        (pin input line (at 36.83 57.15 180) (length 2.54)
          (name "NRST" (effects (font (size 1.27 1.27))))
          (number "16" (effects (font (size 1.27 1.27))))
        )
        (pin bidirectional line (at 36.83 41.91 180) (length 2.54)
          (name "C15-osc32_out" (effects (font (size 1.27 1.27))))
          (number "17" (effects (font (size 1.27 1.27))))
        )
        (pin bidirectional line (at 36.83 46.99 180) (length 2.54)
          (name "C14-osc32_in" (effects (font (size 1.27 1.27))))
          (number "18" (effects (font (size 1.27 1.27))))
        )
        (pin bidirectional line (at 36.83 52.07 180) (length 2.54)
          (name "C13/LED" (effects (font (size 1.27 1.27))))
          (number "19" (effects (font (size 1.27 1.27))))
        )
        (pin power_in line (at -35.56 46.99 0) (length 2.54)
          (name "GND" (effects (font (size 1.27 1.27))))
          (number "2" (effects (font (size 1.27 1.27))))
        )
        (pin power_in line (at -35.56 26.67 0) (length 2.54)
          (name "VBat" (effects (font (size 1.27 1.27))))
          (number "20" (effects (font (size 1.27 1.27))))
        )
        (pin power_in line (at -35.56 31.75 0) (length 2.54)
          (name "3V3" (effects (font (size 1.27 1.27))))
          (number "21" (effects (font (size 1.27 1.27))))
        )
        (pin power_in line (at -35.56 41.91 0) (length 2.54)
          (name "GND" (effects (font (size 1.27 1.27))))
          (number "22" (effects (font (size 1.27 1.27))))
        )
        (pin bidirectional line (at -35.56 -26.67 0) (length 2.54)
          (name "B9" (effects (font (size 1.27 1.27))))
          (number "24" (effects (font (size 1.27 1.27))))
        )
        (pin bidirectional line (at -35.56 -21.59 0) (length 2.54)
          (name "B8" (effects (font (size 1.27 1.27))))
          (number "25" (effects (font (size 1.27 1.27))))
        )
        (pin bidirectional line (at -35.56 -16.51 0) (length 2.54)
          (name "B7" (effects (font (size 1.27 1.27))))
          (number "26" (effects (font (size 1.27 1.27))))
        )
        (pin bidirectional line (at -35.56 -11.43 0) (length 2.54)
          (name "B6" (effects (font (size 1.27 1.27))))
          (number "27" (effects (font (size 1.27 1.27))))
        )
        (pin bidirectional line (at -35.56 -6.35 0) (length 2.54)
          (name "B5" (effects (font (size 1.27 1.27))))
          (number "28" (effects (font (size 1.27 1.27))))
        )
        (pin bidirectional line (at -35.56 -1.27 0) (length 2.54)
          (name "B4" (effects (font (size 1.27 1.27))))
          (number "29" (effects (font (size 1.27 1.27))))
        )
        (pin power_in line (at -35.56 36.83 0) (length 2.54)
          (name "3V3" (effects (font (size 1.27 1.27))))
          (number "3" (effects (font (size 1.27 1.27))))
        )
        (pin bidirectional line (at -35.56 3.81 0) (length 2.54)
          (name "B3" (effects (font (size 1.27 1.27))))
          (number "30" (effects (font (size 1.27 1.27))))
        )
        (pin bidirectional line (at 36.83 -57.15 180) (length 2.54)
          (name "A15" (effects (font (size 1.27 1.27))))
          (number "31" (effects (font (size 1.27 1.27))))
        )
        (pin bidirectional line (at 36.83 -41.91 180) (length 2.54)
          (name "A12/usb_dp" (effects (font (size 1.27 1.27))))
          (number "32" (effects (font (size 1.27 1.27))))
        )
        (pin bidirectional line (at 36.83 -36.83 180) (length 2.54)
          (name "A11/usb_dn" (effects (font (size 1.27 1.27))))
          (number "33" (effects (font (size 1.27 1.27))))
        )
        (pin bidirectional line (at 36.83 -31.75 180) (length 2.54)
          (name "A10" (effects (font (size 1.27 1.27))))
          (number "34" (effects (font (size 1.27 1.27))))
        )
        (pin bidirectional line (at 36.83 -26.67 180) (length 2.54)
          (name "A9" (effects (font (size 1.27 1.27))))
          (number "35" (effects (font (size 1.27 1.27))))
        )
        (pin bidirectional line (at 36.83 -21.59 180) (length 2.54)
          (name "A8" (effects (font (size 1.27 1.27))))
          (number "36" (effects (font (size 1.27 1.27))))
        )
        (pin bidirectional line (at -35.56 -57.15 0) (length 2.54)
          (name "B15/rtc_refin" (effects (font (size 1.27 1.27))))
          (number "37" (effects (font (size 1.27 1.27))))
        )
        (pin bidirectional line (at -35.56 -52.07 0) (length 2.54)
          (name "B14" (effects (font (size 1.27 1.27))))
          (number "38" (effects (font (size 1.27 1.27))))
        )
        (pin bidirectional line (at -35.56 -46.99 0) (length 2.54)
          (name "B13" (effects (font (size 1.27 1.27))))
          (number "39" (effects (font (size 1.27 1.27))))
        )
        (pin bidirectional line (at -35.56 -41.91 0) (length 2.54)
          (name "B12" (effects (font (size 1.27 1.27))))
          (number "40" (effects (font (size 1.27 1.27))))
        )
        (pin bidirectional line (at -35.56 8.89 0) (length 2.54)
          (name "B2/BOOT1" (effects (font (size 1.27 1.27))))
          (number "5" (effects (font (size 1.27 1.27))))
        )
        (pin bidirectional line (at -35.56 13.97 0) (length 2.54)
          (name "B1" (effects (font (size 1.27 1.27))))
          (number "6" (effects (font (size 1.27 1.27))))
        )
        (pin bidirectional line (at -35.56 19.05 0) (length 2.54)
          (name "B0" (effects (font (size 1.27 1.27))))
          (number "7" (effects (font (size 1.27 1.27))))
        )
        (pin bidirectional line (at 36.83 -11.43 180) (length 2.54)
          (name "A6/miso" (effects (font (size 1.27 1.27))))
          (number "9" (effects (font (size 1.27 1.27))))
        )
      )
      (symbol "blackpill-stm32f103rct6-v1.2+_1_0"
        (pin power_in line (at -35.56 57.15 0) (length 2.54)
          (name "5V_(/!\\_GND_on_bluepill_/!\\)" (effects (font (size 1.27 1.27))))
          (number "1" (effects (font (size 1.27 1.27))))
        )
        (pin power_in line (at -35.56 52.07 0) (length 2.54)
          (name "5V" (effects (font (size 1.27 1.27))))
          (number "23" (effects (font (size 1.27 1.27))))
        )
        (pin bidirectional line (at -35.56 -31.75 0) (length 2.54)
          (name "B10" (effects (font (size 1.27 1.27))))
          (number "4" (effects (font (size 1.27 1.27))))
        )
        (pin bidirectional line (at 36.83 -16.51 180) (length 2.54)
          (name "A7/mosi" (effects (font (size 1.27 1.27))))
          (number "8" (effects (font (size 1.27 1.27))))
        )
      )
      (symbol "blackpill-stm32f103rct6-v1.2+_1_1"
        (rectangle (start -33.02 62.23) (end 34.29 -62.23)
          (stroke (width 0) (type default))
          (fill (type background))
        )
        (text "B11" (at -30.48 -36.83 0)
          (effects (font (size 1.27 1.27)))
        )
        (text "PA13/swdio" (at 27.94 -46.99 0)
          (effects (font (size 1.27 1.27)))
        )
        (text "PA14/swclk" (at 27.94 -52.07 0)
          (effects (font (size 1.27 1.27)))
        )
      )
    )
    (symbol "ScamCart2600:cartridge edge connector" (in_bom yes) (on_board yes)
      (property "Reference" "U" (at 0 2.54 0)
        (effects (font (size 1.27 1.27)))
      )
      (property "Value" "cartridge edge connector" (at 0 0 0)
        (effects (font (size 1.27 1.27)))
      )
      (property "Footprint" "SpareCart2600:cartridge gold fingers" (at 0 -2.54 0)
        (effects (font (size 1.27 1.27)) hide)
      )
      (property "Datasheet" "" (at -13.97 -12.7 90)
        (effects (font (size 1.27 1.27)) hide)
      )
      (symbol "cartridge edge connector_0_0"
        (pin output line (at -27.94 -16.51 90) (length 2.54)
          (name "A7" (effects (font (size 1.27 1.27))))
          (number "1" (effects (font (size 1.27 1.27))))
        )
        (pin bidirectional line (at 17.78 -16.51 90) (length 2.54)
          (name "D2" (effects (font (size 1.27 1.27))))
          (number "10" (effects (font (size 1.27 1.27))))
        )
        (pin bidirectional line (at 22.86 -16.51 90) (length 2.54)
          (name "D3" (effects (font (size 1.27 1.27))))
          (number "11" (effects (font (size 1.27 1.27))))
        )
        (pin power_in line (at 27.94 -16.51 90) (length 2.54)
          (name "GND" (effects (font (size 1.27 1.27))))
          (number "12" (effects (font (size 1.27 1.27))))
        )
        (pin bidirectional line (at 27.94 16.51 270) (length 2.54)
          (name "D4" (effects (font (size 1.27 1.27))))
          (number "13" (effects (font (size 1.27 1.27))))
        )
        (pin bidirectional line (at 22.86 16.51 270) (length 2.54)
          (name "D5" (effects (font (size 1.27 1.27))))
          (number "14" (effects (font (size 1.27 1.27))))
        )
        (pin bidirectional line (at 17.78 16.51 270) (length 2.54)
          (name "D6" (effects (font (size 1.27 1.27))))
          (number "15" (effects (font (size 1.27 1.27))))
        )
        (pin bidirectional line (at 12.7 16.51 270) (length 2.54)
          (name "D7" (effects (font (size 1.27 1.27))))
          (number "16" (effects (font (size 1.27 1.27))))
        )
        (pin bidirectional line (at 7.62 16.51 270) (length 2.54)
          (name "D8" (effects (font (size 1.27 1.27))))
          (number "17" (effects (font (size 1.27 1.27))))
        )
        (pin output line (at 2.54 16.51 270) (length 2.54)
          (name "A12" (effects (font (size 1.27 1.27))))
          (number "18" (effects (font (size 1.27 1.27))))
        )
        (pin output line (at -2.54 16.51 270) (length 2.54)
          (name "A10" (effects (font (size 1.27 1.27))))
          (number "19" (effects (font (size 1.27 1.27))))
        )
        (pin output line (at -22.86 -16.51 90) (length 2.54)
          (name "A6" (effects (font (size 1.27 1.27))))
          (number "2" (effects (font (size 1.27 1.27))))
        )
        (pin output line (at -7.62 16.51 270) (length 2.54)
          (name "A11" (effects (font (size 1.27 1.27))))
          (number "20" (effects (font (size 1.27 1.27))))
        )
        (pin output line (at -12.7 16.51 270) (length 2.54)
          (name "A9" (effects (font (size 1.27 1.27))))
          (number "21" (effects (font (size 1.27 1.27))))
        )
        (pin output line (at -17.78 16.51 270) (length 2.54)
          (name "A8" (effects (font (size 1.27 1.27))))
          (number "22" (effects (font (size 1.27 1.27))))
        )
        (pin power_in line (at -22.86 16.51 270) (length 2.54)
          (name "+5V" (effects (font (size 1.27 1.27))))
          (number "23" (effects (font (size 1.27 1.27))))
        )
        (pin output line (at -17.78 -16.51 90) (length 2.54)
          (name "A5" (effects (font (size 1.27 1.27))))
          (number "3" (effects (font (size 1.27 1.27))))
        )
        (pin output line (at -12.7 -16.51 90) (length 2.54)
          (name "A4" (effects (font (size 1.27 1.27))))
          (number "4" (effects (font (size 1.27 1.27))))
        )
        (pin output line (at -7.62 -16.51 90) (length 2.54)
          (name "A3" (effects (font (size 1.27 1.27))))
          (number "5" (effects (font (size 1.27 1.27))))
        )
        (pin output line (at -2.54 -16.51 90) (length 2.54)
          (name "A2" (effects (font (size 1.27 1.27))))
          (number "6" (effects (font (size 1.27 1.27))))
        )
        (pin output line (at 2.54 -16.51 90) (length 2.54)
          (name "A1" (effects (font (size 1.27 1.27))))
          (number "7" (effects (font (size 1.27 1.27))))
        )
        (pin output line (at 7.62 -16.51 90) (length 2.54)
          (name "A0" (effects (font (size 1.27 1.27))))
          (number "8" (effects (font (size 1.27 1.27))))
        )
        (pin bidirectional line (at 12.7 -16.51 90) (length 2.54)
          (name "D1" (effects (font (size 1.27 1.27))))
          (number "9" (effects (font (size 1.27 1.27))))
        )
      )
      (symbol "cartridge edge connector_1_0"
        (pin power_in line (at -27.94 16.51 270) (length 2.54)
          (name "GND" (effects (font (size 1.27 1.27))))
          (number "24" (effects (font (size 1.27 1.27))))
        )
      )
      (symbol "cartridge edge connector_1_1"
        (rectangle (start -33.02 13.97) (end 33.02 -13.97)
          (stroke (width 0) (type default))
          (fill (type background))
        )
      )
    )
    (symbol "power:+5V" (power) (pin_names (offset 0)) (in_bom yes) (on_board yes)
      (property "Reference" "#PWR" (at 0 -3.81 0)
        (effects (font (size 1.27 1.27)) hide)
      )
      (property "Value" "+5V" (at 0 3.556 0)
        (effects (font (size 1.27 1.27)))
      )
      (property "Footprint" "" (at 0 0 0)
        (effects (font (size 1.27 1.27)) hide)
      )
      (property "Datasheet" "" (at 0 0 0)
        (effects (font (size 1.27 1.27)) hide)
      )
      (property "ki_keywords" "global power" (at 0 0 0)
        (effects (font (size 1.27 1.27)) hide)
      )
      (property "ki_description" "Power symbol creates a global label with name \"+5V\"" (at 0 0 0)
        (effects (font (size 1.27 1.27)) hide)
      )
      (symbol "+5V_0_1"
        (polyline
          (pts
            (xy -0.762 1.27)
            (xy 0 2.54)
          )
          (stroke (width 0) (type default))
          (fill (type none))
        )
        (polyline
          (pts
            (xy 0 0)
            (xy 0 2.54)
          )
          (stroke (width 0) (type default))
          (fill (type none))
        )
        (polyline
          (pts
            (xy 0 2.54)
            (xy 0.762 1.27)
          )
          (stroke (width 0) (type default))
          (fill (type none))
        )
      )
      (symbol "+5V_1_1"
        (pin power_in line (at 0 0 90) (length 0) hide
          (name "+5V" (effects (font (size 1.27 1.27))))
          (number "1" (effects (font (size 1.27 1.27))))
        )
      )
    )
    (symbol "power:GND" (power) (pin_names (offset 0)) (in_bom yes) (on_board yes)
      (property "Reference" "#PWR" (at 0 -6.35 0)
        (effects (font (size 1.27 1.27)) hide)
      )
      (property "Value" "GND" (at 0 -3.81 0)
        (effects (font (size 1.27 1.27)))
      )
      (property "Footprint" "" (at 0 0 0)
        (effects (font (size 1.27 1.27)) hide)
      )
      (property "Datasheet" "" (at 0 0 0)
        (effects (font (size 1.27 1.27)) hide)
      )
      (property "ki_keywords" "global power" (at 0 0 0)
        (effects (font (size 1.27 1.27)) hide)
      )
      (property "ki_description" "Power symbol creates a global label with name \"GND\" , ground" (at 0 0 0)
        (effects (font (size 1.27 1.27)) hide)
      )
      (symbol "GND_0_1"
        (polyline
          (pts
            (xy 0 0)
            (xy 0 -1.27)
            (xy 1.27 -1.27)
            (xy 0 -2.54)
            (xy -1.27 -1.27)
            (xy 0 -1.27)
          )
          (stroke (width 0) (type default))
          (fill (type none))
        )
      )
      (symbol "GND_1_1"
        (pin power_in line (at 0 0 270) (length 0) hide
          (name "GND" (effects (font (size 1.27 1.27))))
          (number "1" (effects (font (size 1.27 1.27))))
        )
      )
    )
  )

  (junction (at 132.08 156.21) (diameter 0) (color 0 0 0 0)
    (uuid 0c0fa180-7a37-463d-97f3-6ef7e97938f9)
  )
  (junction (at 139.7 102.87) (diameter 0) (color 0 0 0 0)
    (uuid 12109aeb-7784-4113-8941-237bb995eec0)
  )

  (no_connect (at 148.59 55.88) (uuid 044eb193-5db6-4cb3-a634-b368dd6737bd))
  (no_connect (at 220.98 63.5) (uuid 2415ecdc-7373-47e0-b58d-beaebadb0d85))
  (no_connect (at 220.98 30.48) (uuid 287dd0de-1064-4ff2-b3fe-15c6358b91b7))
  (no_connect (at 148.59 73.66) (uuid 530abbee-3f6a-4683-b228-fc0e2a6c72f5))
  (no_connect (at 220.98 99.06) (uuid 548213fe-569d-4d56-aec0-bffe07701158))
  (no_connect (at 148.59 50.8) (uuid 5c3df6d3-56a0-4306-834b-5e1de8916076))
  (no_connect (at 148.59 45.72) (uuid 5d7cdcef-e99b-4786-9935-b3190bcbc260))
  (no_connect (at 148.59 139.7) (uuid 68f25df2-c965-43ab-861a-b61e560e2a88))
  (no_connect (at 220.98 35.56) (uuid 75153eea-7266-407a-8d36-2839cb77f3dc))
  (no_connect (at 220.98 124.46) (uuid 75e15ed5-b491-4617-9ecf-16cec21bf78c))
  (no_connect (at 220.98 93.98) (uuid 875da119-2240-4113-b8fc-002cb1cd8355))
  (no_connect (at 220.98 139.7) (uuid 8bae2840-021e-4a3e-91a9-2bde59b3c0bc))
  (no_connect (at 220.98 119.38) (uuid 9d751161-1dba-4613-a9bd-37f6abf32650))
  (no_connect (at 146.05 25.4) (uuid a0f1293a-c119-46fb-8d81-c93a5bddf235))
  (no_connect (at 220.98 40.64) (uuid a480452d-adb0-4947-8b93-1db6b49fb933))
  (no_connect (at 220.98 25.4) (uuid cad63c70-9fc4-4d70-a58b-571a26bcd4e5))

  (bus_entry (at 60.96 158.75) (size 2.54 -2.54)
    (stroke (width 0) (type default))
    (uuid 00e8e123-8919-4606-91a3-478369ce59fb)
  )
  (bus_entry (at 139.7 66.04) (size 2.54 -2.54)
    (stroke (width 0) (type default))
    (uuid 0420628a-f68c-4d45-9f80-ab6fcdff05c2)
  )
  (bus_entry (at 111.76 110.49) (size -2.54 2.54)
    (stroke (width 0) (type default))
    (uuid 05d3e3d5-dda4-4e07-9d98-9d0cb171f3b7)
  )
  (bus_entry (at 139.7 86.36) (size 2.54 -2.54)
    (stroke (width 0) (type default))
    (uuid 05e7427b-1b20-4e47-a403-d4e8d06e52be)
  )
  (bus_entry (at 229.87 111.76) (size -2.54 -2.54)
    (stroke (width 0) (type default))
    (uuid 0d3c5324-3730-458f-afa2-6d747a4bbbc7)
  )
  (bus_entry (at 116.84 110.49) (size -2.54 2.54)
    (stroke (width 0) (type default))
    (uuid 17255a23-0923-492c-bb8d-4208a71bcaeb)
  )
  (bus_entry (at 106.68 156.21) (size -2.54 -2.54)
    (stroke (width 0) (type default))
    (uuid 20cce6a0-bdd0-4fcd-84a6-c9f4663a23fc)
  )
  (bus_entry (at 139.7 132.08) (size 2.54 -2.54)
    (stroke (width 0) (type default))
    (uuid 237df29b-790d-474e-aa1d-ecf81ac5fcc9)
  )
  (bus_entry (at 139.7 127) (size 2.54 -2.54)
    (stroke (width 0) (type default))
    (uuid 27a932b2-b8ce-4a3d-966c-6c69c4f65193)
  )
  (bus_entry (at 229.87 86.36) (size -2.54 -2.54)
    (stroke (width 0) (type default))
    (uuid 294fd910-53b0-4ff3-9197-aee2d46278cb)
  )
  (bus_entry (at 139.7 106.68) (size 2.54 -2.54)
    (stroke (width 0) (type default))
    (uuid 2a324b9f-73c8-49da-98d7-8a4711c6a009)
  )
  (bus_entry (at 71.12 102.87) (size -2.54 2.54)
    (stroke (width 0) (type default))
    (uuid 3f1e1bbf-2891-4c2c-b3d6-6e67358e3314)
  )
  (bus_entry (at 111.76 156.21) (size -2.54 -2.54)
    (stroke (width 0) (type default))
    (uuid 4407508c-0a5b-484b-a65e-da98ec49c143)
  )
  (bus_entry (at 101.6 156.21) (size -2.54 -2.54)
    (stroke (width 0) (type default))
    (uuid 4edcc655-b49a-4f2c-b617-476205f782db)
  )
  (bus_entry (at 139.7 96.52) (size 2.54 -2.54)
    (stroke (width 0) (type default))
    (uuid 567a2fd1-0371-4682-a47d-595b285cdf4c)
  )
  (bus_entry (at 96.52 110.49) (size -2.54 2.54)
    (stroke (width 0) (type default))
    (uuid 6b57c68b-96dd-4188-8790-fd588c2d0b6b)
  )
  (bus_entry (at 91.44 158.75) (size 2.54 -2.54)
    (stroke (width 0) (type default))
    (uuid 70715cfa-36b8-4f42-9a9e-a70a9629de05)
  )
  (bus_entry (at 139.7 71.12) (size 2.54 -2.54)
    (stroke (width 0) (type default))
    (uuid 73065653-abd6-4373-b715-aa7097909723)
  )
  (bus_entry (at 229.87 91.44) (size -2.54 -2.54)
    (stroke (width 0) (type default))
    (uuid 7578d574-b172-4806-b734-c7985fa185b3)
  )
  (bus_entry (at 229.87 71.12) (size -2.54 -2.54)
    (stroke (width 0) (type default))
    (uuid 8ad56ff0-e82d-4d65-9be3-1a04923db308)
  )
  (bus_entry (at 229.87 116.84) (size -2.54 -2.54)
    (stroke (width 0) (type default))
    (uuid 8d22de0b-5ae7-44e7-aae6-8ea76b124ae3)
  )
  (bus_entry (at 139.7 137.16) (size 2.54 -2.54)
    (stroke (width 0) (type default))
    (uuid 91ee8a2c-4c03-4fd7-a32a-9edeeea5bf85)
  )
  (bus_entry (at 229.87 81.28) (size -2.54 -2.54)
    (stroke (width 0) (type default))
    (uuid 98331a98-81d9-4f65-abe5-766b23cc6370)
  )
  (bus_entry (at 76.2 102.87) (size -2.54 2.54)
    (stroke (width 0) (type default))
    (uuid 9b5b724b-9b1b-4d25-89a8-6bd02b79672b)
  )
  (bus_entry (at 139.7 91.44) (size 2.54 -2.54)
    (stroke (width 0) (type default))
    (uuid 9bab2d83-0bb8-4a4d-a31c-93bc288d3add)
  )
  (bus_entry (at 71.12 158.75) (size 2.54 -2.54)
    (stroke (width 0) (type default))
    (uuid 9c7569fb-0686-4eeb-b1ac-2f7dd689e3d1)
  )
  (bus_entry (at 229.87 106.68) (size -2.54 -2.54)
    (stroke (width 0) (type default))
    (uuid 9f3779af-34cf-4b25-8e88-01a4bff1cd09)
  )
  (bus_entry (at 106.68 110.49) (size -2.54 2.54)
    (stroke (width 0) (type default))
    (uuid a0fc6e7e-54da-4bea-9ed5-c1646045816f)
  )
  (bus_entry (at 66.04 158.75) (size 2.54 -2.54)
    (stroke (width 0) (type default))
    (uuid a2b45a95-4a6b-43fb-896a-0cbdeea9262a)
  )
  (bus_entry (at 101.6 110.49) (size -2.54 2.54)
    (stroke (width 0) (type default))
    (uuid a5375096-0e26-4e3e-ba06-a28be03d2cba)
  )
  (bus_entry (at 55.88 158.75) (size 2.54 -2.54)
    (stroke (width 0) (type default))
    (uuid a9e05e73-6bb9-4828-a84e-59b79a9c1839)
  )
  (bus_entry (at 81.28 158.75) (size 2.54 -2.54)
    (stroke (width 0) (type default))
    (uuid bdafd464-448d-4cc7-9eb1-1ab37e653721)
  )
  (bus_entry (at 91.44 102.87) (size -2.54 2.54)
    (stroke (width 0) (type default))
    (uuid c2b5881b-79a1-4ee1-a043-2d189fbb8387)
  )
  (bus_entry (at 139.7 111.76) (size 2.54 -2.54)
    (stroke (width 0) (type default))
    (uuid d1536d55-44c5-4881-b547-19e37d83df9e)
  )
  (bus_entry (at 139.7 116.84) (size 2.54 -2.54)
    (stroke (width 0) (type default))
    (uuid d570ca8f-116b-480f-a8fe-6948e2bf2435)
  )
  (bus_entry (at 229.87 76.2) (size -2.54 -2.54)
    (stroke (width 0) (type default))
    (uuid e0b23351-0653-46d9-bb5b-81fbca3dd83e)
  )
  (bus_entry (at 139.7 81.28) (size 2.54 -2.54)
    (stroke (width 0) (type default))
    (uuid ecb2bde7-5f4b-4980-99d1-45386286a212)
  )
  (bus_entry (at 76.2 158.75) (size 2.54 -2.54)
    (stroke (width 0) (type default))
    (uuid ee223130-1997-4dd0-8bac-f8bd6292b4bc)
  )
  (bus_entry (at 86.36 102.87) (size -2.54 2.54)
    (stroke (width 0) (type default))
    (uuid eed23ce5-6350-434e-a37f-fa2faacc1d84)
  )
  (bus_entry (at 139.7 101.6) (size 2.54 -2.54)
    (stroke (width 0) (type default))
    (uuid f9f43e55-3c33-4c76-8a84-fd097a43d8a3)
  )
  (bus_entry (at 81.28 102.87) (size -2.54 2.54)
    (stroke (width 0) (type default))
    (uuid fb43d7b6-1e51-4c60-a181-24969b6ad040)
  )
  (bus_entry (at 86.36 158.75) (size 2.54 -2.54)
    (stroke (width 0) (type default))
    (uuid fb4a2388-5b9c-4358-91fd-dc30561fb573)
  )

  (bus (pts (xy 81.28 102.87) (xy 86.36 102.87))
    (stroke (width 0) (type default))
    (uuid 0f08436d-6d95-4bc7-876b-abdcaa1c9266)
  )
  (bus (pts (xy 106.68 110.49) (xy 111.76 110.49))
    (stroke (width 0) (type default))
    (uuid 0f55fd32-8834-4618-b209-90f4d16967ae)
  )

  (wire (pts (xy 68.58 105.41) (xy 68.58 116.84))
    (stroke (width 0) (type default))
    (uuid 0ff8a8e6-f93c-4d76-afb4-e9adf152c5e6)
  )
  (wire (pts (xy 220.98 73.66) (xy 227.33 73.66))
    (stroke (width 0) (type default))
    (uuid 1000cb8f-cd3a-4a6e-a09b-8f7ef231ebbb)
  )
  (bus (pts (xy 50.8 158.75) (xy 48.26 156.21))
    (stroke (width 0) (type default))
    (uuid 103233c3-9970-4f97-ad05-7e89ea2a631a)
  )

  (wire (pts (xy 142.24 93.98) (xy 148.59 93.98))
    (stroke (width 0) (type default))
    (uuid 120778de-825a-449e-b241-0acd64c23a94)
  )
  (bus (pts (xy 132.08 156.21) (xy 227.33 156.21))
    (stroke (width 0) (type default))
    (uuid 17650796-5cdd-493f-bc64-3c42abd0bfbc)
  )

  (wire (pts (xy 142.24 63.5) (xy 148.59 63.5))
    (stroke (width 0) (type default))
    (uuid 18254e7d-a323-416c-b051-7326f3474598)
  )
  (wire (pts (xy 73.66 105.41) (xy 73.66 116.84))
    (stroke (width 0) (type default))
    (uuid 184c4e7c-7c1e-4682-9749-883259f7ea13)
  )
  (wire (pts (xy 142.24 109.22) (xy 148.59 109.22))
    (stroke (width 0) (type default))
    (uuid 1a9492ea-f69f-4702-83f9-ed1a051fdb3b)
  )
  (bus (pts (xy 55.88 158.75) (xy 60.96 158.75))
    (stroke (width 0) (type default))
    (uuid 1c48b7b5-08be-49f0-a7f3-d9053eb6c06c)
  )
  (bus (pts (xy 229.87 71.12) (xy 229.87 76.2))
    (stroke (width 0) (type default))
    (uuid 1d2f2e16-0d66-437e-ac34-ff7292b01584)
  )

  (wire (pts (xy 83.82 149.86) (xy 83.82 156.21))
    (stroke (width 0) (type default))
    (uuid 20dc006e-1caa-4f90-9511-7b32892b6759)
  )
  (bus (pts (xy 81.28 158.75) (xy 86.36 158.75))
    (stroke (width 0) (type default))
    (uuid 2280cf7b-a0d7-4c3b-bbcf-49b24b32a660)
  )

  (wire (pts (xy 220.98 68.58) (xy 227.33 68.58))
    (stroke (width 0) (type default))
    (uuid 24bc65b1-6778-43fc-8f7b-98207f41c222)
  )
  (wire (pts (xy 142.24 124.46) (xy 148.59 124.46))
    (stroke (width 0) (type default))
    (uuid 26af8855-a901-400a-b7a7-fe0f76562c21)
  )
  (wire (pts (xy 88.9 105.41) (xy 88.9 116.84))
    (stroke (width 0) (type default))
    (uuid 2b9b4d93-ecb5-411a-8a50-614051984c26)
  )
  (wire (pts (xy 99.06 113.03) (xy 99.06 116.84))
    (stroke (width 0) (type default))
    (uuid 2b9f948c-ee06-4178-a604-7966696bd1bb)
  )
  (bus (pts (xy 229.87 76.2) (xy 229.87 81.28))
    (stroke (width 0) (type default))
    (uuid 2c560e84-032c-411f-962a-69b940199a4e)
  )

  (wire (pts (xy 109.22 113.03) (xy 109.22 116.84))
    (stroke (width 0) (type default))
    (uuid 30b4ecd4-9a8c-4230-87c8-689b255214da)
  )
  (bus (pts (xy 139.7 71.12) (xy 139.7 81.28))
    (stroke (width 0) (type default))
    (uuid 38354059-ff50-42e6-881f-4d7ff4ac7669)
  )
  (bus (pts (xy 60.96 158.75) (xy 66.04 158.75))
    (stroke (width 0) (type default))
    (uuid 388c8a90-abc3-42b4-a41a-56cc4590ca32)
  )

  (wire (pts (xy 99.06 149.86) (xy 99.06 153.67))
    (stroke (width 0) (type default))
    (uuid 3a38e4b1-d1c0-4fee-a529-094a86fe1a26)
  )
  (bus (pts (xy 52.07 102.87) (xy 71.12 102.87))
    (stroke (width 0) (type default))
    (uuid 3f8e9cf9-2c2b-41f0-ae5b-8f5d551c5772)
  )
  (bus (pts (xy 50.8 158.75) (xy 55.88 158.75))
    (stroke (width 0) (type default))
    (uuid 3ff5f24e-0822-4738-b7c8-ff64b8c34687)
  )

  (wire (pts (xy 93.98 113.03) (xy 93.98 116.84))
    (stroke (width 0) (type default))
    (uuid 4253fdbe-005e-419c-bc1b-e8de13c35fd0)
  )
  (bus (pts (xy 139.7 127) (xy 139.7 132.08))
    (stroke (width 0) (type default))
    (uuid 44919d50-5bc0-46e7-b06c-d38b2b336b86)
  )

  (wire (pts (xy 73.66 149.86) (xy 73.66 156.21))
    (stroke (width 0) (type default))
    (uuid 482340c6-00bd-48e2-9368-7cfe9f96584d)
  )
  (bus (pts (xy 48.26 106.68) (xy 52.07 102.87))
    (stroke (width 0) (type default))
    (uuid 48af9ebf-5423-43d8-a129-25ab7364281e)
  )
  (bus (pts (xy 76.2 102.87) (xy 81.28 102.87))
    (stroke (width 0) (type default))
    (uuid 4bbd32ba-2d00-4ecd-835e-ddae7dddd5f5)
  )

  (wire (pts (xy 220.98 104.14) (xy 227.33 104.14))
    (stroke (width 0) (type default))
    (uuid 4c4e381c-e353-40cf-b817-300d38722471)
  )
  (wire (pts (xy 148.59 35.56) (xy 146.05 35.56))
    (stroke (width 0) (type default))
    (uuid 4d5484ad-dc7d-45f7-b62e-71d21dede210)
  )
  (wire (pts (xy 142.24 78.74) (xy 148.59 78.74))
    (stroke (width 0) (type default))
    (uuid 4e394aaf-3ff1-4f65-87a6-acb100085ba2)
  )
  (bus (pts (xy 139.7 60.96) (xy 139.7 66.04))
    (stroke (width 0) (type default))
    (uuid 510b9181-24a9-41c6-aa39-c6ed00c27990)
  )

  (wire (pts (xy 109.22 153.67) (xy 109.22 149.86))
    (stroke (width 0) (type default))
    (uuid 537af62a-ebae-406b-a750-bdfe9061bf72)
  )
  (wire (pts (xy 114.3 113.03) (xy 114.3 116.84))
    (stroke (width 0) (type default))
    (uuid 5d92f903-fc54-42bc-b74a-2e44e068e4a1)
  )
  (bus (pts (xy 116.84 110.49) (xy 127 110.49))
    (stroke (width 0) (type default))
    (uuid 6187dc07-6dba-4065-ba02-9fbbe2be5d00)
  )
  (bus (pts (xy 66.04 158.75) (xy 71.12 158.75))
    (stroke (width 0) (type default))
    (uuid 632ed041-c3d0-46d2-a1a3-d1df8ac919a8)
  )
  (bus (pts (xy 86.36 102.87) (xy 91.44 102.87))
    (stroke (width 0) (type default))
    (uuid 63471c88-b8b4-43cb-b3d1-0909b364e054)
  )

  (wire (pts (xy 220.98 114.3) (xy 227.33 114.3))
    (stroke (width 0) (type default))
    (uuid 6440df7c-4e2e-41b6-961e-c1db5f3959fa)
  )
  (wire (pts (xy 142.24 99.06) (xy 148.59 99.06))
    (stroke (width 0) (type default))
    (uuid 66becbba-f6a0-4a90-82da-2c6a2d83dd89)
  )
  (bus (pts (xy 229.87 81.28) (xy 229.87 86.36))
    (stroke (width 0) (type default))
    (uuid 6bca984b-b6d4-4907-ac9c-12b0b08b17d8)
  )
  (bus (pts (xy 139.7 101.6) (xy 139.7 102.87))
    (stroke (width 0) (type default))
    (uuid 6fcc6437-eeb3-4906-a980-97719d12c1f8)
  )
  (bus (pts (xy 96.52 110.49) (xy 101.6 110.49))
    (stroke (width 0) (type default))
    (uuid 76b475fe-8f15-452c-b99a-d8bc62d91009)
  )
  (bus (pts (xy 139.7 111.76) (xy 139.7 116.84))
    (stroke (width 0) (type default))
    (uuid 780f323b-1f5b-4408-a85f-1418d12fa421)
  )
  (bus (pts (xy 139.7 106.68) (xy 139.7 111.76))
    (stroke (width 0) (type default))
    (uuid 78c0b1fb-d481-4feb-840d-eff3dcee2fe7)
  )

  (wire (pts (xy 88.9 149.86) (xy 88.9 156.21))
    (stroke (width 0) (type default))
    (uuid 79d3f1bd-9e1e-4f5a-b2d4-c04a258bde3e)
  )
  (bus (pts (xy 101.6 156.21) (xy 106.68 156.21))
    (stroke (width 0) (type default))
    (uuid 7cc32c15-e54e-4f6f-b343-1c1c5054fe58)
  )
  (bus (pts (xy 101.6 110.49) (xy 106.68 110.49))
    (stroke (width 0) (type default))
    (uuid 8df771ef-f401-41bc-8c06-de6c49e54368)
  )
  (bus (pts (xy 129.54 153.67) (xy 132.08 156.21))
    (stroke (width 0) (type default))
    (uuid 8e10c845-66c6-451d-9eaf-5027ff9450e3)
  )
  (bus (pts (xy 129.54 113.03) (xy 129.54 153.67))
    (stroke (width 0) (type default))
    (uuid 8eb48292-e51d-47ee-9d01-e1b6960e2465)
  )

  (wire (pts (xy 220.98 78.74) (xy 227.33 78.74))
    (stroke (width 0) (type default))
    (uuid 8ff23a8a-0365-4633-ab8b-07df7b3660bb)
  )
  (wire (pts (xy 142.24 88.9) (xy 148.59 88.9))
    (stroke (width 0) (type default))
    (uuid 91b2e329-1c03-4bbc-aca8-78bea6a240a2)
  )
  (bus (pts (xy 229.87 91.44) (xy 229.87 106.68))
    (stroke (width 0) (type default))
    (uuid 9386367c-d7a0-4278-80ce-732592f7a683)
  )

  (wire (pts (xy 146.05 25.4) (xy 148.59 25.4))
    (stroke (width 0) (type default))
    (uuid 93d5a877-6d9e-49b6-b13b-d372fe127f54)
  )
  (bus (pts (xy 48.26 156.21) (xy 48.26 106.68))
    (stroke (width 0) (type default))
    (uuid 93e0705c-b3b5-469f-aea2-1cb41188afc9)
  )
  (bus (pts (xy 139.7 81.28) (xy 139.7 86.36))
    (stroke (width 0) (type default))
    (uuid 977fc8d8-e1ee-4cbe-80b7-2f0cda35fc69)
  )

  (wire (pts (xy 146.05 40.64) (xy 148.59 40.64))
    (stroke (width 0) (type default))
    (uuid 9933d0de-4d6d-40b6-8dbe-d6e8c8aadcba)
  )
  (wire (pts (xy 58.42 149.86) (xy 58.42 156.21))
    (stroke (width 0) (type default))
    (uuid 997562f7-d644-4fd3-92ea-e318672a1dda)
  )
  (bus (pts (xy 127 110.49) (xy 129.54 113.03))
    (stroke (width 0) (type default))
    (uuid 9ea3d24c-1081-4c5f-b082-4554e17efc4e)
  )

  (wire (pts (xy 142.24 83.82) (xy 148.59 83.82))
    (stroke (width 0) (type default))
    (uuid a20d511a-3024-492a-b523-b2ccdc567c7a)
  )
  (bus (pts (xy 111.76 110.49) (xy 116.84 110.49))
    (stroke (width 0) (type default))
    (uuid a38437a9-7d70-4657-8f79-4281ea4672e9)
  )

  (wire (pts (xy 93.98 149.86) (xy 93.98 156.21))
    (stroke (width 0) (type default))
    (uuid a4253888-5741-425c-9896-3d305b51d609)
  )
  (bus (pts (xy 76.2 158.75) (xy 81.28 158.75))
    (stroke (width 0) (type default))
    (uuid a5cd798a-fca7-4463-9251-1caddff25930)
  )
  (bus (pts (xy 139.7 96.52) (xy 139.7 101.6))
    (stroke (width 0) (type default))
    (uuid a6007cea-e040-464b-ac74-67b552b00fd4)
  )

  (wire (pts (xy 146.05 30.48) (xy 148.59 30.48))
    (stroke (width 0) (type default))
    (uuid a6662140-5fb0-4a9a-9c5f-33c3679bfed1)
  )
  (bus (pts (xy 139.7 91.44) (xy 139.7 96.52))
    (stroke (width 0) (type default))
    (uuid a6ab925f-e616-45fd-9647-b9eb7e695fbf)
  )

  (wire (pts (xy 142.24 114.3) (xy 148.59 114.3))
    (stroke (width 0) (type default))
    (uuid a6f85458-4a61-4a08-91f0-f9deeddc825f)
  )
  (bus (pts (xy 106.68 156.21) (xy 111.76 156.21))
    (stroke (width 0) (type default))
    (uuid a8cd8e37-ec7d-46bf-a618-27a6d5f9ce64)
  )
  (bus (pts (xy 229.87 106.68) (xy 229.87 111.76))
    (stroke (width 0) (type default))
    (uuid ac074e0c-e62a-427f-b9c1-b14156b12c3f)
  )
  (bus (pts (xy 139.7 66.04) (xy 139.7 71.12))
    (stroke (width 0) (type default))
    (uuid aded5df9-09b3-4f15-8572-e76375e05653)
  )

  (wire (pts (xy 220.98 83.82) (xy 227.33 83.82))
    (stroke (width 0) (type default))
    (uuid ae543561-3785-48cc-9bf1-f5fda5ab23d3)
  )
  (bus (pts (xy 229.87 111.76) (xy 229.87 116.84))
    (stroke (width 0) (type default))
    (uuid b3e8d8d1-0afe-499a-a92c-51a56ff20c49)
  )

  (wire (pts (xy 142.24 104.14) (xy 148.59 104.14))
    (stroke (width 0) (type default))
    (uuid b48b90a1-31d3-4074-96cd-6fe3cef6536a)
  )
  (bus (pts (xy 139.7 102.87) (xy 139.7 106.68))
    (stroke (width 0) (type default))
    (uuid b6c8b7e7-3331-4c38-a2d8-d7854cb98220)
  )

  (wire (pts (xy 63.5 149.86) (xy 63.5 156.21))
    (stroke (width 0) (type default))
    (uuid b8227351-c42e-45cf-a6c5-9d9a6e3b9905)
  )
  (bus (pts (xy 71.12 158.75) (xy 76.2 158.75))
    (stroke (width 0) (type default))
    (uuid ba741d76-e16a-4ab6-a220-5e965cb71649)
  )
  (bus (pts (xy 111.76 156.21) (xy 132.08 156.21))
    (stroke (width 0) (type default))
    (uuid baf1b9cf-8371-4912-b3f7-cc1e290ed615)
  )

  (wire (pts (xy 104.14 149.86) (xy 104.14 153.67))
    (stroke (width 0) (type default))
    (uuid bb0fe2d6-f872-4ab7-96ed-01d8a6fe23e9)
  )
  (bus (pts (xy 71.12 102.87) (xy 76.2 102.87))
    (stroke (width 0) (type default))
    (uuid bc5ae632-644e-4ee8-9b88-485118761db2)
  )

  (wire (pts (xy 114.3 149.86) (xy 114.3 151.13))
    (stroke (width 0) (type default))
    (uuid c10a7da6-68d7-4bbb-8ea2-476b19bc6888)
  )
  (wire (pts (xy 142.24 129.54) (xy 148.59 129.54))
    (stroke (width 0) (type default))
    (uuid c6319f5c-2937-49fb-9096-4fab4b8a8306)
  )
  (wire (pts (xy 220.98 109.22) (xy 227.33 109.22))
    (stroke (width 0) (type default))
    (uuid cf79f4b2-4792-4945-ab71-559e198ed3e3)
  )
  (wire (pts (xy 58.42 114.3) (xy 58.42 116.84))
    (stroke (width 0) (type default))
    (uuid cff112b6-8429-4396-99f5-53eb157c2b07)
  )
  (bus (pts (xy 229.87 116.84) (xy 229.87 153.67))
    (stroke (width 0) (type default))
    (uuid d19e6d79-8105-449e-a730-9e33400aa473)
  )

  (wire (pts (xy 220.98 88.9) (xy 227.33 88.9))
    (stroke (width 0) (type default))
    (uuid d4211450-9e40-49b2-b62f-55f9187b9ed5)
  )
  (wire (pts (xy 104.14 113.03) (xy 104.14 116.84))
    (stroke (width 0) (type default))
    (uuid d6b696e9-c3cd-4a86-b740-6b3b726ca9b4)
  )
  (wire (pts (xy 78.74 149.86) (xy 78.74 156.21))
    (stroke (width 0) (type default))
    (uuid d712ac30-e119-4526-9504-3750352f3b69)
  )
  (bus (pts (xy 91.44 102.87) (xy 139.7 102.87))
    (stroke (width 0) (type default))
    (uuid da95a1b4-273b-45c0-ab85-c341576d78ea)
  )

  (wire (pts (xy 78.74 105.41) (xy 78.74 116.84))
    (stroke (width 0) (type default))
    (uuid ddd2ca60-6f72-4990-9f81-996234a35217)
  )
  (wire (pts (xy 142.24 68.58) (xy 148.59 68.58))
    (stroke (width 0) (type default))
    (uuid dfa5bc29-edfe-4a0f-937a-0b827d5ce0a7)
  )
  (bus (pts (xy 229.87 86.36) (xy 229.87 91.44))
    (stroke (width 0) (type default))
    (uuid e1d92400-9338-4a75-bbbb-ce970f3bbb1f)
  )
  (bus (pts (xy 139.7 86.36) (xy 139.7 91.44))
    (stroke (width 0) (type default))
    (uuid e4409692-afb5-4f77-a2ec-19a8ca1ad7e4)
  )
  (bus (pts (xy 86.36 158.75) (xy 91.44 158.75))
    (stroke (width 0) (type default))
    (uuid e628171f-9206-4ab5-ae19-07eeb72e54f1)
  )

  (wire (pts (xy 83.82 105.41) (xy 83.82 116.84))
    (stroke (width 0) (type default))
    (uuid e9227be8-c0a1-45db-ac44-907c55dac21b)
  )
  (wire (pts (xy 68.58 149.86) (xy 68.58 156.21))
    (stroke (width 0) (type default))
    (uuid ed7ebe13-e190-4f4b-aa51-5de3fbbc767c)
  )
  (bus (pts (xy 227.33 156.21) (xy 229.87 153.67))
    (stroke (width 0) (type default))
    (uuid ede31c71-5184-4dc6-a450-7de7ad055bb1)
  )
  (bus (pts (xy 139.7 116.84) (xy 139.7 127))
    (stroke (width 0) (type default))
    (uuid f2cf99df-9983-48a4-bed7-d9e03e584be9)
  )
  (bus (pts (xy 139.7 132.08) (xy 139.7 137.16))
    (stroke (width 0) (type default))
    (uuid f375115a-b2b1-4a6a-8e63-f72acabbf882)
  )

  (wire (pts (xy 142.24 134.62) (xy 148.59 134.62))
    (stroke (width 0) (type default))
    (uuid f98240e2-5df0-4a3d-bf9b-8beb0f30099e)
  )

  (label "Addr10" (at 83.82 116.84 90) (fields_autoplaced)
    (effects (font (size 1.27 1.27)) (justify left bottom))
    (uuid 04604e07-c5c8-4bcb-95bd-3787e62b4d9a)
  )
  (label "Addr5" (at 68.58 149.86 270) (fields_autoplaced)
    (effects (font (size 1.27 1.27)) (justify right bottom))
    (uuid 0b8b6184-bccb-430f-9b4c-d4a612b20ea4)
  )
  (label "Data7" (at 99.06 116.84 90) (fields_autoplaced)
    (effects (font (size 1.27 1.27)) (justify left bottom))
    (uuid 10b71b19-a973-4efe-83a4-cb7002779b62)
  )
  (label "Addr4" (at 142.24 88.9 0) (fields_autoplaced)
    (effects (font (size 1.27 1.27)) (justify left bottom))
    (uuid 11730da3-9d14-4393-8a2b-ae804e94a907)
  )
  (label "Addr2" (at 142.24 78.74 0) (fields_autoplaced)
    (effects (font (size 1.27 1.27)) (justify left bottom))
    (uuid 1419c47f-abc0-4fc1-9b6f-62969603d191)
  )
  (label "Data7" (at 227.33 109.22 180) (fields_autoplaced)
    (effects (font (size 1.27 1.27)) (justify right bottom))
    (uuid 194e76ea-a003-4dee-bac6-9e19a434fd61)
  )
  (label "Data5" (at 109.22 116.84 90) (fields_autoplaced)
    (effects (font (size 1.27 1.27)) (justify left bottom))
    (uuid 1f89e3a7-2062-45b8-a817-6ef9d2382680)
  )
  (label "Data1" (at 227.33 68.58 180) (fields_autoplaced)
    (effects (font (size 1.27 1.27)) (justify right bottom))
    (uuid 222bc4ae-a7d5-4b38-aa5b-11a205cb9df1)
  )
  (label "Addr0" (at 93.98 149.86 270) (fields_autoplaced)
    (effects (font (size 1.27 1.27)) (justify right bottom))
    (uuid 2e2a78f2-0b1f-477c-893e-2922c94401fb)
  )
  (label "Data5" (at 227.33 88.9 180) (fields_autoplaced)
    (effects (font (size 1.27 1.27)) (justify right bottom))
    (uuid 350c16cd-29a7-405f-b692-863f644453ff)
  )
  (label "Addr1" (at 142.24 68.58 0) (fields_autoplaced)
    (effects (font (size 1.27 1.27)) (justify left bottom))
    (uuid 3f08f315-5974-493c-ae2b-688b17425f5d)
  )
  (label "Data2" (at 104.14 149.86 270) (fields_autoplaced)
    (effects (font (size 1.27 1.27)) (justify right bottom))
    (uuid 4152a26c-0af6-4442-8f28-1bd65bd68f6d)
  )
  (label "Addr[0..12]" (at 88.9 102.87 0) (fields_autoplaced)
    (effects (font (size 1.27 1.27)) (justify left bottom))
    (uuid 41a4409b-682a-4ab6-b7b1-252ccf78c04d)
  )
  (label "Addr3" (at 78.74 149.86 270) (fields_autoplaced)
    (effects (font (size 1.27 1.27)) (justify right bottom))
    (uuid 441ae52b-58ee-4596-a08b-793e7560ea23)
  )
  (label "Addr0" (at 142.24 63.5 0) (fields_autoplaced)
    (effects (font (size 1.27 1.27)) (justify left bottom))
    (uuid 4e6932d6-04a3-4f4e-a08d-6699d68ae3e5)
  )
  (label "Addr8" (at 142.24 109.22 0) (fields_autoplaced)
    (effects (font (size 1.27 1.27)) (justify left bottom))
    (uuid 4f4ff448-002d-44dc-a4e4-8140f3dbfd8e)
  )
  (label "Addr8" (at 68.58 116.84 90) (fields_autoplaced)
    (effects (font (size 1.27 1.27)) (justify left bottom))
    (uuid 521711b9-2442-4051-9cec-7162b40fdb9a)
  )
  (label "Addr7" (at 142.24 104.14 0) (fields_autoplaced)
    (effects (font (size 1.27 1.27)) (justify left bottom))
    (uuid 5a833af3-6504-4a2e-b326-53029618953c)
  )
  (label "Addr1" (at 88.9 149.86 270) (fields_autoplaced)
    (effects (font (size 1.27 1.27)) (justify right bottom))
    (uuid 5d851168-f639-4769-81e1-186e43f1afb1)
  )
  (label "Data1" (at 99.06 149.86 270) (fields_autoplaced)
    (effects (font (size 1.27 1.27)) (justify right bottom))
    (uuid 668b312a-51ba-4656-838c-16e1957226e6)
  )
  (label "Data8" (at 93.98 116.84 90) (fields_autoplaced)
    (effects (font (size 1.27 1.27)) (justify left bottom))
    (uuid 6cdccaf7-5b78-4a4e-aa7a-4376d62c2c60)
  )
  (label "Addr5" (at 142.24 93.98 0) (fields_autoplaced)
    (effects (font (size 1.27 1.27)) (justify left bottom))
    (uuid 6cde07c3-795d-41f7-97d1-1dae1eef9d9b)
  )
  (label "Data4" (at 227.33 83.82 180) (fields_autoplaced)
    (effects (font (size 1.27 1.27)) (justify right bottom))
    (uuid 7448bd74-e949-48ad-bf2e-447fa1c93945)
  )
  (label "Addr12" (at 142.24 134.62 0) (fields_autoplaced)
    (effects (font (size 1.27 1.27)) (justify left bottom))
    (uuid 7b2e9d91-841e-4331-a377-685b96ee07db)
  )
  (label "Addr10" (at 142.24 124.46 0) (fields_autoplaced)
    (effects (font (size 1.27 1.27)) (justify left bottom))
    (uuid 7e126d84-57eb-46a9-81d0-23c8590ea1d7)
  )
  (label "Addr11" (at 142.24 129.54 0) (fields_autoplaced)
    (effects (font (size 1.27 1.27)) (justify left bottom))
    (uuid 85d14322-d32b-46cf-827e-a78385df9c12)
  )
  (label "Data8" (at 227.33 114.3 180) (fields_autoplaced)
    (effects (font (size 1.27 1.27)) (justify right bottom))
    (uuid 9058bee5-74aa-45c0-ba31-381ad32688ab)
  )
  (label "Data2" (at 227.33 73.66 180) (fields_autoplaced)
    (effects (font (size 1.27 1.27)) (justify right bottom))
    (uuid 982409af-2bfb-49e0-ae5c-1ea4419bac7f)
  )
  (label "Addr6" (at 63.5 149.86 270) (fields_autoplaced)
    (effects (font (size 1.27 1.27)) (justify right bottom))
    (uuid bc1945f8-bb67-453a-a8a2-e399ae9f82db)
  )
  (label "Data6" (at 104.14 116.84 90) (fields_autoplaced)
    (effects (font (size 1.27 1.27)) (justify left bottom))
    (uuid bfdebc78-416b-4ef5-8ec1-3a58eef665ae)
  )
  (label "Addr9" (at 73.66 116.84 90) (fields_autoplaced)
    (effects (font (size 1.27 1.27)) (justify left bottom))
    (uuid c0bbaaa5-34d6-4d94-acf3-cff2ed4a33d0)
  )
  (label "Data3" (at 227.33 78.74 180) (fields_autoplaced)
    (effects (font (size 1.27 1.27)) (justify right bottom))
    (uuid c1cd57b3-24dd-4268-871c-449a2079d132)
  )
  (label "Data3" (at 109.22 149.86 270) (fields_autoplaced)
    (effects (font (size 1.27 1.27)) (justify right bottom))
    (uuid c70fc0f7-85db-41a0-9909-5770d5ba244f)
  )
  (label "Addr6" (at 142.24 99.06 0) (fields_autoplaced)
    (effects (font (size 1.27 1.27)) (justify left bottom))
    (uuid cab77024-4b9b-4956-8a0a-c6ad51a2c8e0)
  )
  (label "Addr2" (at 83.82 149.86 270) (fields_autoplaced)
    (effects (font (size 1.27 1.27)) (justify right bottom))
    (uuid d11ffea6-3266-4b62-b3a8-82b78c292426)
  )
  (label "Addr3" (at 142.24 83.82 0) (fields_autoplaced)
    (effects (font (size 1.27 1.27)) (justify left bottom))
    (uuid d3b36a98-9161-47ea-b8dd-bca6087e6abe)
  )
  (label "Data4" (at 114.3 116.84 90) (fields_autoplaced)
    (effects (font (size 1.27 1.27)) (justify left bottom))
    (uuid e5cea8ac-008d-4492-835f-9176417907d6)
  )
  (label "Data[1..8]" (at 146.05 156.21 0) (fields_autoplaced)
    (effects (font (size 1.27 1.27)) (justify left bottom))
    (uuid e640e861-63f0-4bc5-81ca-ec1f67a71adf)
  )
  (label "Addr9" (at 142.24 114.3 0) (fields_autoplaced)
    (effects (font (size 1.27 1.27)) (justify left bottom))
    (uuid e73a9db6-ff32-4198-8019-a6fdc979b75e)
  )
  (label "Addr4" (at 73.66 149.86 270) (fields_autoplaced)
    (effects (font (size 1.27 1.27)) (justify right bottom))
    (uuid eb028754-2737-4ec2-9a29-09c39c370a3d)
  )
  (label "Addr7" (at 58.42 149.86 270) (fields_autoplaced)
    (effects (font (size 1.27 1.27)) (justify right bottom))
    (uuid ebf8d410-6052-45c3-9da4-ce7f231e1f9f)
  )
  (label "Addr12" (at 88.9 116.84 90) (fields_autoplaced)
    (effects (font (size 1.27 1.27)) (justify left bottom))
    (uuid f2bdc71d-0054-4a8a-9080-72b12c54522d)
  )
  (label "Addr11" (at 78.74 116.84 90) (fields_autoplaced)
    (effects (font (size 1.27 1.27)) (justify left bottom))
    (uuid f43f99f3-6203-47cd-bff8-75eb3221877e)
  )
  (label "Data6" (at 227.33 104.14 180) (fields_autoplaced)
    (effects (font (size 1.27 1.27)) (justify right bottom))
    (uuid f4993f5f-a39d-4061-a35f-4f071283e070)
  )

  (symbol (lib_id "ScamCart2600:blackpill-stm32f103rct6-v1.2+") (at 184.15 82.55 0) (unit 1)
    (in_bom yes) (on_board yes) (dnp no) (fields_autoplaced)
    (uuid 04337f9b-1e3d-4bcc-804b-2b758383f1c3)
    (property "Reference" "U1" (at 184.785 16.51 0)
      (effects (font (size 1.27 1.27)))
    )
    (property "Value" "blackpill-stm32f103rct6-v1.2+" (at 184.785 19.05 0)
      (effects (font (size 1.27 1.27)))
    )
    (property "Footprint" "ScamCart2600:Bluepill" (at 184.15 88.9 0)
      (effects (font (size 1.27 1.27)) hide)
    )
    (property "Datasheet" "" (at 177.8 64.77 0)
      (effects (font (size 1.27 1.27)) hide)
    )
    (pin "10" (uuid f0dd186d-5e9a-44cf-80c3-8ad8db40c8c9))
    (pin "11" (uuid a9e52bab-1d08-4e56-bcfc-a7e078043701))
    (pin "12" (uuid 442d1237-bade-4b5e-b9a4-a023f8c5f58f))
    (pin "13" (uuid 595260c3-2304-435c-9777-f27c00ceeb7f))
    (pin "14" (uuid fdf747d7-5523-45d4-ada8-46a2c38b1b82))
    (pin "15" (uuid 7462ffeb-55d0-4043-8df3-fe17ca3150ec))
    (pin "16" (uuid 836cca87-2d33-4fe8-ad6f-27c6d2a3d09c))
    (pin "17" (uuid 0b37de5a-3742-4e9a-8bdf-02c40ec6b824))
    (pin "18" (uuid 65a100ba-8bd9-45da-91c6-d9b9ad6b8b21))
    (pin "19" (uuid 8234ec52-aee4-4546-938b-3196ade8f1f1))
    (pin "2" (uuid be650489-b3a5-45fb-9eed-523c35cb2aee))
    (pin "20" (uuid 6805535f-e416-4ccf-b442-0cc5d3425604))
    (pin "21" (uuid df5b8e58-85bb-4a12-907e-1c192043a83f))
    (pin "22" (uuid a8297aa6-0eb2-40b1-85f8-d311ef7d7aff))
    (pin "24" (uuid 646ca9eb-7f87-47c7-a3c7-cf4919308de3))
    (pin "25" (uuid 84162939-fe79-404a-9b73-8576c5787fa8))
    (pin "26" (uuid 8dba4d59-040f-4a73-90ea-ff4581315ff3))
    (pin "27" (uuid d5b718ee-ded4-47f6-8cd3-26187ebf447d))
    (pin "28" (uuid 7305bef2-8513-480d-9533-9f9b64663f29))
    (pin "29" (uuid bb606766-4482-426a-8935-93c1e9ead80d))
    (pin "3" (uuid e87840c5-5b93-4d0e-85e3-a87ccfbdbc75))
    (pin "30" (uuid 7da050c1-6a59-4b09-a7dd-ddd60c3a261c))
    (pin "31" (uuid fc146535-0e76-4b61-8dc6-3fedeb0d3c5b))
    (pin "32" (uuid 2268603c-dffb-46ec-b5aa-417f0dd6a010))
    (pin "33" (uuid ab544ddd-5529-49f7-8a40-c2d20175f0f7))
    (pin "34" (uuid 95c34812-221e-41b1-8d1a-b26144a30b93))
    (pin "35" (uuid df28af6f-8174-44b2-ac1e-a2777d907a5b))
    (pin "36" (uuid a3f19afd-c9bc-4f84-be57-35fb32668602))
    (pin "37" (uuid 67897b36-cf31-4ba1-af12-6f318f0b393b))
    (pin "38" (uuid 4d6913da-5055-43f4-b48e-9271e66d5678))
    (pin "39" (uuid a8d9913e-b11d-41aa-bb25-5468af8eafa9))
    (pin "40" (uuid d7515959-ae2e-4341-8c02-e67f0a7c6cd7))
    (pin "5" (uuid 33c88ca7-690c-4eb4-aab8-5efcf12a71e7))
    (pin "6" (uuid e9281578-553d-4b9e-a59a-c614d3710604))
    (pin "7" (uuid bf3b9266-8b8a-43a2-aca4-fac1005a6991))
    (pin "9" (uuid 524f5511-7ea9-4590-bd48-f9b8fc09fe53))
    (pin "1" (uuid fb6d6809-5c3f-4f1c-b745-624b1b50e529))
    (pin "23" (uuid 0d20e93d-0a98-45af-af12-dd40ff9a035e))
    (pin "4" (uuid c97fe9cf-c73a-4f98-906c-48f3ee283a34))
    (pin "8" (uuid 9ac44c1c-9290-4900-9ad5-50fc4a03d210))
    (instances
      (project "ScamCart2600"
        (path "/2e53f67b-7a73-4d1c-9809-6dd34f05a78e"
          (reference "U1") (unit 1)
        )
      )
    )
  )

  (symbol (lib_id "power:GND") (at 114.3 151.13 0) (unit 1)
    (in_bom yes) (on_board yes) (dnp no) (fields_autoplaced)
    (uuid 0c5a2426-8201-4618-8883-28d1dc6e1c76)
    (property "Reference" "#PWR03" (at 114.3 157.48 0)
      (effects (font (size 1.27 1.27)) hide)
    )
    (property "Value" "GND" (at 114.3 156.21 0)
      (effects (font (size 1.27 1.27)) hide)
    )
    (property "Footprint" "" (at 114.3 151.13 0)
      (effects (font (size 1.27 1.27)) hide)
    )
    (property "Datasheet" "" (at 114.3 151.13 0)
      (effects (font (size 1.27 1.27)) hide)
    )
    (pin "1" (uuid 0685fbeb-a3dc-428f-a3ad-892890517750))
    (instances
      (project "ScamCart2600"
        (path "/2e53f67b-7a73-4d1c-9809-6dd34f05a78e"
          (reference "#PWR03") (unit 1)
        )
      )
      (project "SpareCart2600"
        (path "/a2ce3a7b-c6a1-4c4c-be7a-ed2eedbf5483"
          (reference "#PWR07") (unit 1)
        )
      )
    )
  )

  (symbol (lib_id "ScamCart2600:cartridge edge connector") (at 86.36 133.35 0) (unit 1)
    (in_bom yes) (on_board yes) (dnp no) (fields_autoplaced)
    (uuid 1d97d92c-379a-410b-8373-969e75c4e751)
    (property "Reference" "U2" (at 120.65 132.715 0)
      (effects (font (size 1.27 1.27)) (justify left))
    )
    (property "Value" "cartridge edge connector" (at 120.65 135.255 0)
      (effects (font (size 1.27 1.27)) (justify left))
    )
    (property "Footprint" "ScamCart2600:cartridge gold fingers" (at 86.36 135.89 0)
      (effects (font (size 1.27 1.27)) hide)
    )
    (property "Datasheet" "" (at 72.39 146.05 90)
      (effects (font (size 1.27 1.27)) hide)
    )
    (pin "1" (uuid 0de755ed-4bf7-4595-8808-2318bbda7c5f))
    (pin "10" (uuid b820e018-28ec-4833-9957-b3a695759419))
    (pin "11" (uuid 0abea24e-900e-49a4-8aa0-7f0a22856dda))
    (pin "12" (uuid 4ad19d2c-b47f-4ee1-aad9-80c901f82ff9))
    (pin "13" (uuid cb91cbe1-6076-4a66-bac5-68ad7c6f1e27))
    (pin "14" (uuid 49ae667e-5bb0-4a40-82b4-e7f36def9a93))
    (pin "15" (uuid 21573c82-addd-4a7c-8240-19c3e84f15ad))
    (pin "16" (uuid 56b0969a-0654-4a34-9e5b-5b0b186ac842))
    (pin "17" (uuid 4707e117-1399-4a7b-8567-553497f59ec6))
    (pin "18" (uuid 0f78af83-f451-4f91-a4b3-15d61f001cc7))
    (pin "19" (uuid c979f87d-726f-4fd0-a85e-539021f80f8d))
    (pin "2" (uuid 8349429c-cd22-4b71-80a1-4906a3aa700a))
    (pin "20" (uuid b21abca0-450f-496f-82d6-815d650f48d8))
    (pin "21" (uuid 50eead0f-69d9-4744-b90a-ebfdab7e9a76))
    (pin "22" (uuid 065d5343-6429-4d88-af53-e3a3fed999a2))
    (pin "23" (uuid 7f2ed99d-0dee-4fcd-a02d-9dbac0008beb))
    (pin "3" (uuid 62d39ab4-4439-4658-b713-06bea47bd7aa))
    (pin "4" (uuid 264bfeb8-a9fc-4e45-83c5-c89d938ecee6))
    (pin "5" (uuid 9dedc0b4-d924-4870-a8c3-808b9e58ebd8))
    (pin "6" (uuid 4090c5ba-6de5-43ba-be83-66ab79460217))
    (pin "7" (uuid 9412f35e-66e8-401a-89ed-56e94994ae30))
    (pin "8" (uuid caff5b59-f7e2-4b4c-bd1c-aa7f94d91744))
    (pin "9" (uuid f78f381a-0e5f-4edf-9a80-af4a1647923d))
    (pin "24" (uuid e954a7ed-b7cb-47c1-8c07-1b50a73456df))
    (instances
      (project "ScamCart2600"
        (path "/2e53f67b-7a73-4d1c-9809-6dd34f05a78e"
          (reference "U2") (unit 1)
        )
      )
    )
  )

  (symbol (lib_id "power:+5V") (at 146.05 30.48 90) (unit 1)
    (in_bom yes) (on_board yes) (dnp no) (fields_autoplaced)
    (uuid 270d7d17-928a-44c2-bc47-6d72239696d4)
    (property "Reference" "#PWR04" (at 149.86 30.48 0)
      (effects (font (size 1.27 1.27)) hide)
    )
    (property "Value" "+5V" (at 142.24 31.115 90)
      (effects (font (size 1.27 1.27)) (justify left))
    )
    (property "Footprint" "" (at 146.05 30.48 0)
      (effects (font (size 1.27 1.27)) hide)
    )
    (property "Datasheet" "" (at 146.05 30.48 0)
      (effects (font (size 1.27 1.27)) hide)
    )
    (pin "1" (uuid 7530073c-b492-4db1-b54e-ab0ff14d15a4))
    (instances
      (project "ScamCart2600"
        (path "/2e53f67b-7a73-4d1c-9809-6dd34f05a78e"
          (reference "#PWR04") (unit 1)
        )
      )
      (project "SpareCart2600"
        (path "/a2ce3a7b-c6a1-4c4c-be7a-ed2eedbf5483"
          (reference "#PWR03") (unit 1)
        )
      )
    )
  )

  (symbol (lib_id "Diode:1N5819WS") (at 63.5 113.03 270) (unit 1)
    (in_bom yes) (on_board yes) (dnp no)
    (uuid 2de9b605-910d-4327-8928-d36f05788816)
    (property "Reference" "D1" (at 66.04 111.76 90)
      (effects (font (size 1.27 1.27)) (justify left))
    )
    (property "Value" "1N5819WS" (at 66.04 101.6 0)
      (effects (font (size 1.27 1.27)) (justify left) hide)
    )
    (property "Footprint" "Diode_SMD:D_SOD-323" (at 59.055 113.03 0)
      (effects (font (size 1.27 1.27)) hide)
    )
    (property "Datasheet" "https://datasheet.lcsc.com/lcsc/2204281430_Guangdong-Hottech-1N5819WS_C191023.pdf" (at 63.5 113.03 0)
      (effects (font (size 1.27 1.27)) hide)
    )
    (pin "1" (uuid 104e3598-bfee-4d69-933f-5c995fe91cba))
    (pin "2" (uuid d23653e9-4784-4655-8565-f4aa84aee378))
    (instances
      (project "ScamCart2600"
        (path "/2e53f67b-7a73-4d1c-9809-6dd34f05a78e"
          (reference "D1") (unit 1)
        )
      )
      (project "SpareCart2600"
        (path "/a2ce3a7b-c6a1-4c4c-be7a-ed2eedbf5483"
          (reference "D1") (unit 1)
        )
      )
    )
  )

  (symbol (lib_id "power:+5V") (at 63.5 109.22 0) (unit 1)
    (in_bom yes) (on_board yes) (dnp no) (fields_autoplaced)
    (uuid 8901231d-a385-4b22-a475-b6e901bfb168)
    (property "Reference" "#PWR02" (at 63.5 113.03 0)
      (effects (font (size 1.27 1.27)) hide)
    )
    (property "Value" "+5V" (at 63.5 105.41 0)
      (effects (font (size 1.27 1.27)))
    )
    (property "Footprint" "" (at 63.5 109.22 0)
      (effects (font (size 1.27 1.27)) hide)
    )
    (property "Datasheet" "" (at 63.5 109.22 0)
      (effects (font (size 1.27 1.27)) hide)
    )
    (pin "1" (uuid ac5a4c4d-0b5a-4d0a-a8f0-be0759b2ec50))
    (instances
      (project "ScamCart2600"
        (path "/2e53f67b-7a73-4d1c-9809-6dd34f05a78e"
          (reference "#PWR02") (unit 1)
        )
      )
      (project "SpareCart2600"
        (path "/a2ce3a7b-c6a1-4c4c-be7a-ed2eedbf5483"
          (reference "#PWR01") (unit 1)
        )
      )
    )
  )

  (symbol (lib_id "power:GND") (at 58.42 114.3 180) (unit 1)
    (in_bom yes) (on_board yes) (dnp no) (fields_autoplaced)
    (uuid b5acd049-115f-486c-8575-aa0461244bb8)
    (property "Reference" "#PWR01" (at 58.42 107.95 0)
      (effects (font (size 1.27 1.27)) hide)
    )
    (property "Value" "GND" (at 58.42 110.49 0)
      (effects (font (size 1.27 1.27)) hide)
    )
    (property "Footprint" "" (at 58.42 114.3 0)
      (effects (font (size 1.27 1.27)) hide)
    )
    (property "Datasheet" "" (at 58.42 114.3 0)
      (effects (font (size 1.27 1.27)) hide)
    )
    (pin "1" (uuid 2f73d412-5e84-4b8e-b224-f8e1a3f85aa4))
    (instances
      (project "ScamCart2600"
        (path "/2e53f67b-7a73-4d1c-9809-6dd34f05a78e"
          (reference "#PWR01") (unit 1)
        )
      )
      (project "SpareCart2600"
        (path "/a2ce3a7b-c6a1-4c4c-be7a-ed2eedbf5483"
          (reference "#PWR02") (unit 1)
        )
      )
    )
  )

  (symbol (lib_id "power:GND") (at 146.05 35.56 270) (unit 1)
    (in_bom yes) (on_board yes) (dnp no) (fields_autoplaced)
    (uuid d016b6ea-7e5b-4463-8e5b-3b9940aa215b)
    (property "Reference" "#PWR05" (at 139.7 35.56 0)
      (effects (font (size 1.27 1.27)) hide)
    )
    (property "Value" "GND" (at 142.24 36.195 90)
      (effects (font (size 1.27 1.27)) (justify right))
    )
    (property "Footprint" "" (at 146.05 35.56 0)
      (effects (font (size 1.27 1.27)) hide)
    )
    (property "Datasheet" "" (at 146.05 35.56 0)
      (effects (font (size 1.27 1.27)) hide)
    )
    (pin "1" (uuid 3df8fc5c-9c1d-45dd-81b5-75a89c8d2957))
    (instances
      (project "ScamCart2600"
        (path "/2e53f67b-7a73-4d1c-9809-6dd34f05a78e"
          (reference "#PWR05") (unit 1)
        )
      )
      (project "SpareCart2600"
        (path "/a2ce3a7b-c6a1-4c4c-be7a-ed2eedbf5483"
          (reference "#PWR04") (unit 1)
        )
      )
    )
  )

  (symbol (lib_id "power:GND") (at 146.05 40.64 270) (unit 1)
    (in_bom yes) (on_board yes) (dnp no) (fields_autoplaced)
    (uuid da25a075-0a88-424c-9cad-412419e11d22)
    (property "Reference" "#PWR06" (at 139.7 40.64 0)
      (effects (font (size 1.27 1.27)) hide)
    )
    (property "Value" "GND" (at 142.24 41.275 90)
      (effects (font (size 1.27 1.27)) (justify right))
    )
    (property "Footprint" "" (at 146.05 40.64 0)
      (effects (font (size 1.27 1.27)) hide)
    )
    (property "Datasheet" "" (at 146.05 40.64 0)
      (effects (font (size 1.27 1.27)) hide)
    )
    (pin "1" (uuid e18eafe0-6f33-4b18-a51f-d075674db2a7))
    (instances
      (project "ScamCart2600"
        (path "/2e53f67b-7a73-4d1c-9809-6dd34f05a78e"
          (reference "#PWR06") (unit 1)
        )
      )
      (project "SpareCart2600"
        (path "/a2ce3a7b-c6a1-4c4c-be7a-ed2eedbf5483"
          (reference "#PWR06") (unit 1)
        )
      )
    )
  )

  (sheet_instances
    (path "/" (page "1"))
  )
)
